{
  "shell-version": ["3.0.2"], 
  "uuid": "autochange-workspace@shaiton.fedoraproject.org", 
  "name": "autochange workspace", 
  "description": "auto switch to next workspace with specified delay",
  "url": "https://127.0.0.1"
}

